{
  "development": {
    "username": "postgres",
    "password": "ganteng123",
    "database": "db_chapter_7_auth",
    "host": "127.0.0.1",
    "dialect": "postgres"
  },
  "test": {
    "username": "postgres",
    "password": "ganteng123",
    "database": "db_chapter_7_auth_test",
    "host": "127.0.0.1",
    "dialect": "postgres"
  },
  "production": {
    "username": "postgres",
    "password": "ganteng123",
    "database": "db_chapter_7_auth_prod",
    "host": "127.0.0.1",
    "dialect": "postgres"
  }
}
